<?xml version="1.0" standalone="no"?>
<!DOCTYPE svg PUBLIC "-//W3C//DTD SVG 20010904//EN"
 "http://www.w3.org/TR/2001/REC-SVG-20010904/DTD/svg10.dtd">
<svg version="1.0" xmlns="http://www.w3.org/2000/svg"
 width="256.000000pt" height="256.000000pt" viewBox="0 0 256.000000 256.000000"
 preserveAspectRatio="xMidYMid meet">
<metadata>
Created by potrace 1.14, written by Peter Selinger 2001-2017
</metadata>
<g transform="translate(0.000000,256.000000) scale(0.100000,-0.100000)"
fill="#000000" stroke="none">
<path d="M1155 2517 c-57 -19 -103 -44 -161 -87 l-51 -38 -54 19 c-104 36
-182 17 -259 -62 -67 -69 -94 -130 -97 -223 l-2 -79 -79 -81 c-167 -173 -271
-383 -308 -626 -18 -120 -18 -210 0 -330 37 -245 147 -465 318 -637 90 -92
153 -141 253 -198 275 -156 628 -190 933 -88 576 192 903 815 737 1400 -55
191 -158 364 -304 506 -88 86 -88 87 -93 145 -10 108 -90 225 -183 268 -56 27
-137 31 -195 10 -33 -12 -37 -11 -79 20 -84 64 -147 87 -246 91 -56 2 -105 -2
-130 -10z m222 -25 c79 -25 136 -63 214 -142 105 -106 142 -206 104 -280 -37
-71 -149 -120 -292 -128 -109 -6 -156 5 -272 59 -101 47 -137 49 -173 12 -34
-37 -79 -128 -113 -231 -16 -49 -32 -81 -38 -79 -20 6 -29 105 -24 267 5 198
19 238 117 343 85 91 160 144 248 174 81 27 151 29 229 5z m-483 -101 l28 -11
-36 -43 c-56 -64 -95 -127 -107 -172 -16 -57 -28 -159 -29 -233 l0 -62 -47 24
c-59 30 -117 88 -138 138 -23 56 -19 144 9 203 32 67 86 128 138 154 46 24
123 24 182 2z m894 4 c91 -38 172 -155 179 -260 4 -53 1 -66 -27 -113 -33 -57
-93 -107 -141 -117 -17 -4 -32 -5 -35 -3 -7 8 -26 159 -28 223 -1 75 -30 136
-97 209 l-49 54 27 10 c43 16 129 14 171 -3z m-52 -562 c4 -88 3 -133 -3 -133
-6 0 -13 21 -17 48 -3 26 -17 91 -29 144 l-24 97 26 26 26 26 7 -38 c3 -21 10
-98 14 -170z m-604 141 c124 -58 207 -73 320 -56 44 6 104 23 133 36 l53 24
24 -81 c21 -74 23 -102 23 -287 l0 -205 -33 -68 c-158 -320 -601 -319 -759 0
-36 74 -37 79 -43 217 -6 129 -4 147 17 213 49 155 107 253 149 253 10 0 62
-21 116 -46z m-312 -379 c0 -78 -2 -85 -20 -85 -18 0 -20 7 -20 85 0 78 2 85
20 85 18 0 20 -7 20 -85z m940 -5 c0 -73 -2 -80 -20 -80 -18 0 -20 7 -20 80 0
73 2 80 20 80 18 0 20 -7 20 -80z m-495 -520 c33 0 77 4 98 9 l38 9 -3 -36
c-3 -34 -6 -37 -68 -62 l-65 -27 -65 27 c-45 18 -65 32 -64 43 1 9 2 26 3 36
1 17 5 18 33 10 18 -5 60 -9 93 -9z m199 -104 c66 -61 36 -117 -75 -143 -76
-17 -84 -12 -99 66 -5 30 -9 55 -8 56 7 4 134 54 140 55 4 0 23 -15 42 -34z
m-273 2 c30 -12 58 -25 62 -29 12 -10 -12 -119 -25 -119 -6 0 -41 5 -77 11
-111 19 -142 70 -76 128 42 37 47 37 116 9z m813 -20 c14 -55 -2 -148 -26
-148 -4 0 -8 -18 -8 -39 0 -45 -14 -88 -36 -111 -8 -8 -28 -35 -45 -58 -17
-24 -43 -51 -58 -60 -28 -15 -28 -18 -35 -135 -3 -66 -6 -144 -6 -174 l0 -54
-52 -23 c-265 -116 -566 -127 -837 -30 -52 18 -98 37 -102 41 -5 5 -16 83 -25
176 l-18 167 -32 19 c-18 11 -45 39 -61 63 -15 24 -38 56 -50 71 -16 20 -23
42 -23 73 0 31 -7 54 -22 75 -23 31 -29 79 -15 131 l7 27 47 -20 c25 -11 78
-24 117 -30 39 -6 80 -13 91 -15 18 -3 28 -29 68 -176 27 -95 49 -174 51 -175
1 -1 48 -6 104 -9 l102 -7 -25 -42 c-24 -42 -24 -43 -5 -60 19 -17 20 -15 57
43 l38 61 72 1 72 0 35 -54 c41 -64 50 -71 67 -50 10 12 9 23 -9 58 l-20 43
51 7 c29 3 80 6 115 6 41 0 64 4 67 13 2 6 18 89 36 183 l32 171 62 6 c34 3
93 17 131 30 38 13 72 25 75 26 4 0 9 -9 13 -21z m-101 -645 c65 -8 59 -27
-23 -81 l-65 -43 -3 28 c-2 15 -1 47 3 71 5 35 10 42 23 37 9 -3 39 -9 65 -12z
m-1149 -24 c3 -17 6 -47 6 -66 0 -41 -5 -41 -86 13 -62 41 -70 64 -21 65 17 1
43 5 57 9 14 4 28 8 31 9 4 1 9 -13 13 -30z"/>
<path d="M1003 1841 c-47 -12 -83 -39 -83 -61 0 -25 16 -25 65 0 22 11 56 20
78 20 21 0 55 -9 77 -20 52 -26 72 -26 68 2 -6 44 -128 79 -205 59z m151 -25
c33 -14 53 -33 43 -42 -3 -3 -23 4 -46 15 -53 27 -124 27 -175 0 -39 -20 -54
-20 -41 1 23 37 155 53 219 26z"/>
<path d="M1381 1832 c-42 -21 -60 -47 -45 -62 8 -8 22 -6 50 9 52 28 124 28
175 -1 29 -16 42 -19 50 -11 54 54 -144 110 -230 65z m151 -2 c40 -11 87 -45
77 -55 -4 -3 -22 3 -41 15 -57 33 -115 36 -173 6 -54 -28 -68 -27 -40 4 32 36
109 49 177 30z"/>
<path d="M1046 1698 c-25 -35 5 -75 48 -64 32 8 40 33 21 62 -19 30 -49 31
-69 2z"/>
<path d="M1422 1708 c-7 -7 -12 -21 -12 -33 0 -12 5 -26 12 -33 7 -7 21 -12
33 -12 12 0 26 5 33 12 7 7 12 21 12 33 0 12 -5 26 -12 33 -7 7 -21 12 -33 12
-12 0 -26 -5 -33 -12z"/>
<path d="M1187 1563 c-25 -24 31 -103 73 -103 37 0 77 28 89 62 15 43 -2 60
-22 21 -22 -43 -43 -56 -73 -49 -16 4 -30 19 -40 41 -15 37 -17 39 -27 28z"/>
<path d="M1165 1381 c-21 -35 58 -77 128 -68 43 6 94 47 82 66 -4 8 -15 4 -32
-14 -37 -36 -114 -36 -148 0 -14 16 -26 22 -30 16z"/>
</g>
</svg>
